Time : 12:04:54
SQLSTATE[42S22]: Column not found: 1054 Unknown column 'player_id' in 'field list'
Raw SQL : UPDATE game_data SET player_id = :player_id,points = :points

Time : 12:04:44
SQLSTATE[42S22]: Column not found: 1054 Unknown column 'player_id' in 'field list'
Raw SQL : UPDATE game_data SET player_id = :player_id,points = :points

Time : 12:04:34
SQLSTATE[42S22]: Column not found: 1054 Unknown column 'player_id' in 'field list'
Raw SQL : UPDATE game_data SET player_id = :player_id,points = :points

Time : 12:04:24
SQLSTATE[42S22]: Column not found: 1054 Unknown column 'player_id' in 'field list'
Raw SQL : UPDATE game_data SET player_id = :player_id,points = :points

Time : 12:04:14
SQLSTATE[42S22]: Column not found: 1054 Unknown column 'player_id' in 'field list'
Raw SQL : UPDATE game_data SET player_id = :player_id,points = :points

Time : 12:04:04
SQLSTATE[42S22]: Column not found: 1054 Unknown column 'player_id' in 'field list'
Raw SQL : UPDATE game_data SET player_id = :player_id,points = :points

Time : 12:03:54
SQLSTATE[42S22]: Column not found: 1054 Unknown column 'player_id' in 'field list'
Raw SQL : UPDATE game_data SET player_id = :player_id,points = :points

Time : 12:03:44
SQLSTATE[42S22]: Column not found: 1054 Unknown column 'player_id' in 'field list'
Raw SQL : UPDATE game_data SET player_id = :player_id,points = :points

Time : 12:03:34
SQLSTATE[42S22]: Column not found: 1054 Unknown column 'player_id' in 'field list'
Raw SQL : UPDATE game_data SET player_id = :player_id,points = :points

Time : 12:03:24
SQLSTATE[42S22]: Column not found: 1054 Unknown column 'player_id' in 'field list'
Raw SQL : UPDATE game_data SET player_id = :player_id,points = :points

Time : 12:03:14
SQLSTATE[42S22]: Column not found: 1054 Unknown column 'player_id' in 'field list'
Raw SQL : UPDATE game_data SET player_id = :player_id,points = :points

Time : 12:03:04
SQLSTATE[42S22]: Column not found: 1054 Unknown column 'player_id' in 'field list'
Raw SQL : UPDATE game_data SET player_id = :player_id,points = :points

Time : 12:02:54
SQLSTATE[42S22]: Column not found: 1054 Unknown column 'player_id' in 'field list'
Raw SQL : UPDATE game_data SET player_id = :player_id,points = :points

Time : 12:02:44
SQLSTATE[42S22]: Column not found: 1054 Unknown column 'player_id' in 'field list'
Raw SQL : UPDATE game_data SET player_id = :player_id,points = :points

Time : 12:02:34
SQLSTATE[42S22]: Column not found: 1054 Unknown column 'player_id' in 'field list'
Raw SQL : UPDATE game_data SET player_id = :player_id,points = :points

Time : 12:02:24
SQLSTATE[42S22]: Column not found: 1054 Unknown column 'player_id' in 'field list'
Raw SQL : UPDATE game_data SET player_id = :player_id,points = :points

Time : 12:02:14
SQLSTATE[42S22]: Column not found: 1054 Unknown column 'player_id' in 'field list'
Raw SQL : UPDATE game_data SET player_id = :player_id,points = :points

Time : 12:02:04
SQLSTATE[42S22]: Column not found: 1054 Unknown column 'player_id' in 'field list'
Raw SQL : UPDATE game_data SET player_id = :player_id,points = :points

Time : 12:01:54
SQLSTATE[42S22]: Column not found: 1054 Unknown column 'player_id' in 'field list'
Raw SQL : UPDATE game_data SET player_id = :player_id,points = :points

Time : 12:01:44
SQLSTATE[42S22]: Column not found: 1054 Unknown column 'player_id' in 'field list'
Raw SQL : UPDATE game_data SET player_id = :player_id,points = :points

Time : 12:01:34
SQLSTATE[42S22]: Column not found: 1054 Unknown column 'player_id' in 'field list'
Raw SQL : UPDATE game_data SET player_id = :player_id,points = :points

Time : 12:01:24
SQLSTATE[42S22]: Column not found: 1054 Unknown column 'player_id' in 'field list'
Raw SQL : UPDATE game_data SET player_id = :player_id,points = :points

Time : 12:01:14
SQLSTATE[42S22]: Column not found: 1054 Unknown column 'player_id' in 'field list'
Raw SQL : UPDATE game_data SET player_id = :player_id,points = :points

Time : 12:01:04
SQLSTATE[42S22]: Column not found: 1054 Unknown column 'player_id' in 'field list'
Raw SQL : UPDATE game_data SET player_id = :player_id,points = :points

Time : 12:00:54
SQLSTATE[42S22]: Column not found: 1054 Unknown column 'player_id' in 'field list'
Raw SQL : UPDATE game_data SET player_id = :player_id,points = :points

Time : 12:00:44
SQLSTATE[42S22]: Column not found: 1054 Unknown column 'player_id' in 'field list'
Raw SQL : UPDATE game_data SET player_id = :player_id,points = :points

Time : 12:00:34
SQLSTATE[42S22]: Column not found: 1054 Unknown column 'player_id' in 'field list'
Raw SQL : UPDATE game_data SET player_id = :player_id,points = :points

Time : 12:00:24
SQLSTATE[42S22]: Column not found: 1054 Unknown column 'player_id' in 'field list'
Raw SQL : UPDATE game_data SET player_id = :player_id,points = :points

Time : 12:00:15
SQLSTATE[42S22]: Column not found: 1054 Unknown column 'player_id' in 'field list'
Raw SQL : UPDATE game_data SET player_id = :player_id,points = :points

Time : 12:00:04
SQLSTATE[42S22]: Column not found: 1054 Unknown column 'player_id' in 'field list'
Raw SQL : UPDATE game_data SET player_id = :player_id,points = :points

Time : 11:59:54
SQLSTATE[42S22]: Column not found: 1054 Unknown column 'player_id' in 'field list'
Raw SQL : UPDATE game_data SET player_id = :player_id,points = :points

Time : 11:59:44
SQLSTATE[42S22]: Column not found: 1054 Unknown column 'player_id' in 'field list'
Raw SQL : UPDATE game_data SET player_id = :player_id,points = :points

Time : 11:59:34
SQLSTATE[42S22]: Column not found: 1054 Unknown column 'player_id' in 'field list'
Raw SQL : UPDATE game_data SET player_id = :player_id,points = :points

Time : 11:59:24
SQLSTATE[42S22]: Column not found: 1054 Unknown column 'player_id' in 'field list'
Raw SQL : UPDATE game_data SET player_id = :player_id,points = :points

Time : 11:59:14
SQLSTATE[42S22]: Column not found: 1054 Unknown column 'player_id' in 'field list'
Raw SQL : UPDATE game_data SET player_id = :player_id,points = :points

Time : 11:59:04
SQLSTATE[42S22]: Column not found: 1054 Unknown column 'player_id' in 'field list'
Raw SQL : UPDATE game_data SET player_id = :player_id,points = :points

Time : 11:58:54
SQLSTATE[42S22]: Column not found: 1054 Unknown column 'player_id' in 'field list'
Raw SQL : UPDATE game_data SET player_id = :player_id,points = :points

Time : 11:58:44
SQLSTATE[42S22]: Column not found: 1054 Unknown column 'player_id' in 'field list'
Raw SQL : UPDATE game_data SET player_id = :player_id,points = :points

Time : 11:58:34
SQLSTATE[42S22]: Column not found: 1054 Unknown column 'player_id' in 'field list'
Raw SQL : UPDATE game_data SET player_id = :player_id,points = :points

Time : 11:58:24
SQLSTATE[42S22]: Column not found: 1054 Unknown column 'player_id' in 'field list'
Raw SQL : UPDATE game_data SET player_id = :player_id,points = :points

Time : 11:58:14
SQLSTATE[42S22]: Column not found: 1054 Unknown column 'player_id' in 'field list'
Raw SQL : UPDATE game_data SET player_id = :player_id,points = :points

Time : 11:58:04
SQLSTATE[42S22]: Column not found: 1054 Unknown column 'player_id' in 'field list'
Raw SQL : UPDATE game_data SET player_id = :player_id,points = :points

Time : 11:57:54
SQLSTATE[42S22]: Column not found: 1054 Unknown column 'player_id' in 'field list'
Raw SQL : UPDATE game_data SET player_id = :player_id,points = :points

Time : 11:57:44
SQLSTATE[42S22]: Column not found: 1054 Unknown column 'player_id' in 'field list'
Raw SQL : UPDATE game_data SET player_id = :player_id,points = :points

Time : 11:57:34
SQLSTATE[42S22]: Column not found: 1054 Unknown column 'player_id' in 'field list'
Raw SQL : UPDATE game_data SET player_id = :player_id,points = :points

Time : 11:57:24
SQLSTATE[42S22]: Column not found: 1054 Unknown column 'player_id' in 'field list'
Raw SQL : UPDATE game_data SET player_id = :player_id,points = :points

Time : 11:57:14
SQLSTATE[42S22]: Column not found: 1054 Unknown column 'player_id' in 'field list'
Raw SQL : UPDATE game_data SET player_id = :player_id,points = :points

Time : 11:57:04
SQLSTATE[42S22]: Column not found: 1054 Unknown column 'player_id' in 'field list'
Raw SQL : UPDATE game_data SET player_id = :player_id,points = :points

Time : 11:56:54
SQLSTATE[42S22]: Column not found: 1054 Unknown column 'player_id' in 'field list'
Raw SQL : UPDATE game_data SET player_id = :player_id,points = :points

Time : 11:56:44
SQLSTATE[42S22]: Column not found: 1054 Unknown column 'player_id' in 'field list'
Raw SQL : UPDATE game_data SET player_id = :player_id,points = :points

Time : 11:56:34
SQLSTATE[42S22]: Column not found: 1054 Unknown column 'player_id' in 'field list'
Raw SQL : UPDATE game_data SET player_id = :player_id,points = :points

Time : 11:56:24
SQLSTATE[42S22]: Column not found: 1054 Unknown column 'player_id' in 'field list'
Raw SQL : UPDATE game_data SET player_id = :player_id,points = :points

Time : 11:56:14
SQLSTATE[42S22]: Column not found: 1054 Unknown column 'player_id' in 'field list'
Raw SQL : UPDATE game_data SET player_id = :player_id,points = :points

Time : 11:56:04
SQLSTATE[42S22]: Column not found: 1054 Unknown column 'player_id' in 'field list'
Raw SQL : UPDATE game_data SET player_id = :player_id,points = :points

Time : 11:55:54
SQLSTATE[42S22]: Column not found: 1054 Unknown column 'player_id' in 'field list'
Raw SQL : UPDATE game_data SET player_id = :player_id,points = :points

Time : 11:55:44
SQLSTATE[42S22]: Column not found: 1054 Unknown column 'player_id' in 'field list'
Raw SQL : UPDATE game_data SET player_id = :player_id,points = :points

Time : 11:55:34
SQLSTATE[42S22]: Column not found: 1054 Unknown column 'player_id' in 'field list'
Raw SQL : UPDATE game_data SET player_id = :player_id,points = :points
